T3-A0239429U.knit
…
library(knitr)
library(rpivotTable)

getwd()

## [1] "C:/Users/zandr/OneDrive/Desktop/R"

setwd("C:/Users/zandr/OneDrive/Desktop/R")
ES <- read_excel("Ecommerceshipping.xlsx")
ES

## # A tibble: 10,999 x 12
##       ID Warehouse_block Mode_of_Shipment Customer_care_calls Customer_rating
##    <dbl> <chr>           <chr>                          <dbl>           <dbl>
##  1     1 D               Flight                             4               2
##  2     2 F               Flight                             4               5
##  3     3 A               Flight                             2               2
##  4     4 B               Flight                             3               3
##  5     5 C               Flight                             2               2
##  6     6 F               Flight                             3               1
##  7     7 D               Flight                             3               4
##  8     8 F               Flight                             4               1
##  9     9 A               Flight                             3               4
## 10    10 B               Flight                             3               2
## # ... with 10,989 more rows, and 7 more variables: Cost_of_the_Product <dbl>,
## #   Prior_purchases <dbl>, Product_importance <chr>, Gender <chr>,
## #   Discount_offered <dbl>, Weight_in_gms <dbl>, Reached.on.Time_Y.N <dbl>
…
